2014-05-16 13:40:37.835000:  pvar: Permanent variable system used.
2014-05-16 13:40:40.331000:  pvar: Permanent variable system used.
2014-05-16 13:40:42.094000:  pvar: Permanent variable system used.
2014-05-16 13:40:43.295000:  pvar: Permanent variable system used.
2014-05-16 13:40:44.777000:  pvar: Permanent variable system used.
2014-05-16 13:40:46.977000:  pvar: Permanent variable system used.
2014-05-16 13:40:57.212000:  pvar: Permanent variable system used.
2014-06-10 11:58:36.871000:  pvar: Permanent variable system used.
2014-06-10 11:58:50.412000:  pvar: Permanent variable system used.
